country,1990,1991,1992,1993,1994,1995,1996,1997,1998,1999,2000,2001,2002,2003,2004,2005,2006,2007,2008,2009,2010,2011,2012,2013,2014,2015
Australia,0,0,0,0,52,52,52,52,52,52,52,52,52,52,52,52,46,46,46,46,46,46,46,46,46,46
Austria,44,96,96,96,96,96,96,70,70,70,70,70,70,70,70,70,70,70,83,83,87.3,87.3,87.3,87.3,87.3,87.3
Belgium,0,0,0,0,0,0,0,0,13,13,13,13,13,13,13,13,13,13,13,13,13,13,17.3,17.3,17.3,17.3
Canada,0,10,10,10,10,10,10,10,10,10,10,35,35,35,35,35,35,35,35,35,35,35,35,35,35,35
Czech Republic,134,134,134,134,134,134,134,134,134,134,134,134,134,134,134,134,134,134,134,134,134,134,134,134,134,134
Denmark,10,10,36,36,36,36,36,36,36,36,36,36,32,32,32,32,32,32,32,32,32,32,32,32,32,32
Estonia,,,,,,,,,,,,,,,,,,,,,,,146,146,146,146
Finland,141.5,143.5,143.5,143.5,143.5,143.5,143.5,143.5,143.5,143.5,143.5,143.5,143.5,141.5,141.5,141.5,141.5,141.5,141.5,141.5,141.5,141.5,141.5,143.5,143.5,143.5
France,146,146,146,146,146,146,146,146,146,146,146,146,146,146,146,146,146,146,146,146,146,146,146,146,146,146
Germany,56.3,69.3,148,148,148,148,148,148,148,148,148,148,148,148,148,148,148,148,148,148,148,148,148,148,148,148
Greece,13,13,13,15.2,15.2,15.2,15.2,15.2,15.2,15.2,15.2,15.2,15.2,15.2,15.2,15.2,15.2,15.2,15.2,15.2,15.2,15.2,17.3,17.3,17.3,17.3
Hungary,150,150,136,136,136,136,136,136,136,136,136,136,136,136,136,136,136,136,136,136,136,136,136,136,136,136
Iceland,17.3,17.3,17.3,17.3,17.3,17.3,17.3,17.3,17.3,17.3,17.3,26,26,26,26,26,26,26,26,26,26,26,26,26,30.3,30.3
Ireland,0,0,0,0,0,0,0,0,0,14,14,14,14,14,14,14,14,14,14,14,14,14,14,18,18,18
Italy,26,26,26,26,26,26,26,26,26,26,26,26,26,26,26,26,26,26,26,26,26,26,26,26,26,26
Japan,0,0,44,44,44,44,44,44,44,44,44,44,44,44,44,44,44,44,44,44,44,44,44,44,44,44
Korea,47.8,47.8,47.8,47.8,47.8,47.8,47.8,47.8,47.8,47.8,47.8,47.8,45.6,45.6,45.6,45.6,45.6,45.6,52,52,52,52,52,52,52,52
Luxembourg,0,0,0,0,0,0,0,0,0,26,26,26,26,26,26,26,26,26,26,26,26,26,26,26,26,26
Mexico,0,0,0,0,0,0,0,0,0,0,0,0,0,0,0,0,0,0,0,0,0,0,0,0,0,0
Netherlands,0,13,13,13,13,13,13,13,13,13,13,13,13,13,13,13,13,13,13,26,26,26,26,26,26,26
New Zealand,44,44,44,44,44,44,44,44,44,44,44,44,44,46,46,45,45,44,44,44,44,44,44,44,44,42
Norway,74,74,79,81,81,81,81,81,81,81,81,81,81,81,81,81,81,81,81,79,79,78,78,78,70,78
Poland,156,156,156,156,156,156,156,156,156,156,156,156,156,156,156,156,156,156,156,156,156,156,156,182,177.7,177.7
Portugal,104,104,104,104,104,104,104,104,104,104,117,117,117,117,117,117,117,117,117,127.7,127.7,127.7,127.7,127.7,127.7,128.1
Slovak Republic,134,134,134,136,136,136,136,136,136,136,136,136,136,136,136,136,136,136,136,136,136,130,130,130,130,130
Slovenia,,,,,,,,,,,,,,,,,,,,,,,37.1,37.1,37.1,37.1
Spain,46,46,46,46,46,46,46,46,46,46,46,46,46,46,46,46,46,46,46,46,46,46,46,46,46,46
Sweden,78,78,78,78,78,73.7,73.7,73.7,73.7,73.7,73.7,73.7,69.4,69.4,69.4,69.4,69.4,69.4,69.4,69.4,69.4,69.4,69.4,69.4,69.4,69.4
Switzerland,0,0,0,0,0,0,0,0,0,0,0,0,0,0,0,0,0,0,0,0,0,0,0,0,0,0
Turkey,26,26,26,26,26,26,26,26,26,26,26,26,26,26,26,26,26,26,26,26,26,26,26,26,26,26
United Kingdom,0,0,0,0,0,0,0,0,0,0,13,13,13,13,13,13,13,13,13,13,13,13,13,18,18,18
United States,0,0,0,0,12,12,12,12,12,12,12,12,12,12,12,12,12,12,12,12,12,12,12,12,12,12
